…
    library(lattice)
    activity_fld <- data.frame(activity_fld)
    activity_fld <- group_by(activity_fld, wk_grp, interval)
    activity_fld <- summarise(activity_fld, average = mean(steps))

    ## `summarise()` regrouping output by 'wk_grp' (override with `.groups` argument)

    activity_fld

    ## # A tibble: 576 x 3
    ## # Groups:   wk_grp [2]
    ##    wk_grp  interval average
    ##    <chr>      <int>   <dbl>
    ##  1 Weekday        0  2.25  
    ##  2 Weekday        5  0.445 
    ##  3 Weekday       10  0.173 
    ##  4 Weekday       15  0.198 
    ##  5 Weekday       20  0.0990
    ##  6 Weekday       25  1.59  
    ##  7 Weekday       30  0.693 
    ##  8 Weekday       35  1.14  
    ##  9 Weekday       40  0     
    ## 10 Weekday       45  1.80  
    ## # ... with 566 more rows
…
